…
+     p_grid <- seq(from = 0, to = 1, length.out = size)
+     prior <- rep(1, size)
+     likelihood <- dbinom(W, size = N, prob = p_grid)
+     unstd_post <- likelihood * prior
+     posterior <- unstd_post / sum(unstd_post)
+     tibble(p = p_grid, post = posterior)
+ }
> 
> size <- 100
> W <- 4
> L <- 11
> 
> model <- grid_approximation_pW(W, L, size)
> model
# A tibble: 100 × 2
        p       post
    <dbl>      <dbl>
 1 0      0         
 2 0.0101 0.00000205
 3 0.0202 0.0000294 
 4 0.0303 0.000133  
 5 0.0404 0.000373  
 6 0.0505 0.000812  
 7 0.0606 0.00150   
 8 0.0707 0.00246   
 9 0.0808 0.00372   
10 0.0909 0.00528   
# … with 90 more rows
…
+   n_grid <- make_n_grid(W, N_max)
+   likelihood_w_given_n <- dbinom(W, n_grid, p_W)
+   unstd_post <- likelihood_w_given_n
+   posterior <- unstd_post / sum(unstd_post)
+   tibble(n = n_grid, post = round(posterior,3))
+ }
> 
> 
> N_max <- 30
> W <- 5
> p_W <- 0.7
> 
> model <- grid_approximation_tosses(W, p_W, N_max)
> model
# A tibble: 26 × 2
       n  post
   <dbl> <dbl>
 1     5 0.118
 2     6 0.212
 3     7 0.222
 4     8 0.178
 5     9 0.12 
 6    10 0.072
 7    11 0.04 
 8    12 0.02 
 9    13 0.01 
10    14 0.005
# … with 16 more rows
…
+   ylab("Frequency") +
+   labs(title = "Predictive posterior distribution of N tosses given W=5, pW = 0.7", subtitle="89% HPDI in blue") +
+   theme(legend.position="none")
> 
> 
> ### Testing
> # To test the model, we will assume a longer tossing run, with $W=50$ and a $N_{max} = 100$:
> 
> N_max <- 100
> W <- 50
> p_W <- 0.7
> 
> model <- grid_approximation_tosses(W, p_W, N_max)
> model
# A tibble: 51 × 2
       n  post
   <dbl> <dbl>
 1    50 0    
 2    51 0    
 3    52 0    
 4    53 0    
 5    54 0    
 6    55 0    
 7    56 0    
 8    57 0.001
 9    58 0.002
10    59 0.003
# … with 41 more rows
…
+   xlab("number of predicted tosses") +
+   ylab("Frequency") +
+   labs(title = "Predictive posterior distribution of N tosses given W=50, pW = 0.7", subtitle="89% HPDI in blue") +
+   theme(legend.position="none")
> 
> 
> # By changing $p_W$ for a value lower than $0.5$, say $p_W = 0.3$, the likelihood of longer tossing runs increases:
> 
> N_max <- 100
> W <- 50
> p_W <- 0.3
> 
> model <- grid_approximation_tosses(W, p_W, N_max)
> model
# A tibble: 51 × 2
       n  post
   <dbl> <dbl>
 1    50     0
 2    51     0
 3    52     0
 4    53     0
 5    54     0
 6    55     0
 7    56     0
 8    57     0
 9    58     0
10    59     0
# … with 41 more rows
…
